<?xml version="1.0" encoding="UTF-8"?>
<svg width="21px" height="20px" viewBox="0 0 21 20" version="1.1" xmlns="http://www.w3.org/2000/svg" xmlns:xlink="http://www.w3.org/1999/xlink">
    <!-- Generator: Sketch 49 (51002) - http://www.bohemiancoding.com/sketch -->
    <title>Group</title>
    <desc>Created with Sketch.</desc>
    <defs>
        <path d="M8.28947368,9.31216931 C6.00039873,9.31216931 4.14473684,7.22756921 4.14473684,4.65608466 C4.14473684,2.08460011 6.00039873,0 8.28947368,0 C10.5785486,0 12.4342105,2.08460011 12.4342105,4.65608466 C12.4342105,7.22756921 10.5785486,9.31216931 8.28947368,9.31216931 Z M16.5789474,15.0627667 C16.5789474,17.7711914 0,17.7711914 0,15.0627667 C0,12.3543421 4.71363638,10.1587302 8.28947368,10.1587302 C11.865311,10.1587302 16.5789474,12.3543421 16.5789474,15.0627667 Z" id="path-1"></path>
        <linearGradient x1="50%" y1="4.09140173%" x2="50%" y2="97.0217666%" id="linearGradient-3">
            <stop stop-color="#E0C3FC" offset="0%"></stop>
            <stop stop-color="#8EC5FC" offset="100%"></stop>
        </linearGradient>
        <path d="M4.80317565,10.6370106 C4.14979927,9.16907022 4.14473684,6.88461513 4.14473684,4.92239859 C4.14473684,1.63278336 5.71305119,0.0376168063 7.80050611,0.0376168063 C9.88796103,0.0376168063 12.4831109,2.37696618 12.4831109,5.54138554 C12.4831109,7.43456019 11.6937479,9.33048385 10.4044007,10.6049328 C13.5592804,11.5399345 17.0695183,13.7974153 17.0695183,16.2014407 C17.0695183,19.3521797 0,17.8823025 0,15.1738779 C0,13.2105127 2.27359724,11.4545361 4.80317565,10.6370106 Z" id="path-4"></path>
        <path d="M8.28947368,9.31216931 C6.00039873,9.31216931 4.14473684,7.22756921 4.14473684,4.65608466 C4.14473684,2.08460011 6.00039873,0 8.28947368,0 C10.5785486,0 12.4342105,2.08460011 12.4342105,4.65608466 C12.4342105,7.22756921 10.5785486,9.31216931 8.28947368,9.31216931 Z M16.5789474,15.0627667 C16.5789474,17.7711914 0,17.7711914 0,15.0627667 C0,12.3543421 4.71363638,10.1587302 8.28947368,10.1587302 C11.865311,10.1587302 16.5789474,12.3543421 16.5789474,15.0627667 Z" id="path-6"></path>
    </defs>
    <g id="Page-1" stroke="none" stroke-width="1" fill="none" fill-rule="evenodd">
        <g id="Artboard" transform="translate(-314.000000, -758.000000)">
            <g id="Group" transform="translate(314.000000, 758.000000)">
                <g id="Icon" transform="translate(4.421053, 0.000000)">
                    <mask id="mask-2" fill="white">
                        <use xlink:href="#path-1"></use>
                    </mask>
                    <use fill="#000000" xlink:href="#path-1"></use>
                    <g id="Color" mask="url(#mask-2)" fill="url(#linearGradient-3)">
                        <g transform="translate(-3.315789, -3.386243)">
                            <rect x="0" y="0" width="23.2105263" height="23.7037037"></rect>
                        </g>
                    </g>
                </g>
                <g id="Icon" transform="translate(1.105263, 1.000000)">
                    <mask id="mask-5" fill="white">
                        <use xlink:href="#path-4"></use>
                    </mask>
                    <use fill="#FFFFFF" xlink:href="#path-4"></use>
                    <g id="Color" mask="url(#mask-5)">
                        <g transform="translate(-3.315789, -3.275132)">
                            <rect x="0" y="0" width="23.2105263" height="23.7111111"></rect>
                        </g>
                    </g>
                </g>
                <g id="Icon" transform="translate(0.000000, 2.222222)">
                    <mask id="mask-7" fill="white">
                        <use xlink:href="#path-6"></use>
                    </mask>
                    <use fill="#FFFFFF" xlink:href="#path-6"></use>
                    <g id="Color" mask="url(#mask-7)" fill="url(#linearGradient-3)">
                        <g transform="translate(-3.315789, -3.386243)">
                            <rect x="0" y="0" width="23.2105263" height="23.7111111"></rect>
                        </g>
                    </g>
                </g>
            </g>
        </g>
    </g>
</svg>