<?xml version="1.0" encoding="UTF-8"?>
<svg width="20px" height="22px" viewBox="0 0 20 22" version="1.1" xmlns="http://www.w3.org/2000/svg" xmlns:xlink="http://www.w3.org/1999/xlink">
    <!-- Generator: Sketch 49 (51002) - http://www.bohemiancoding.com/sketch -->
    <title>Icon</title>
    <desc>Created with Sketch.</desc>
    <defs>
        <path d="M3.8458278,0 L16.1541722,0 C17.4914503,0 17.9763797,0.139238417 18.4652686,0.400699056 C18.9541574,0.662159695 19.3378403,1.04584256 19.5993009,1.53473144 C19.8607616,2.02362033 20,2.50854969 20,3.8458278 L20,18.1541722 C20,19.4914503 19.8607616,19.9763797 19.5993009,20.4652686 C19.3378403,20.9541574 18.9541574,21.3378403 18.4652686,21.5993009 C17.9763797,21.8607616 17.4914503,22 16.1541722,22 L3.8458278,22 C2.50854969,22 2.02362033,21.8607616 1.53473144,21.5993009 C1.04584256,21.3378403 0.662159695,20.9541574 0.400699056,20.4652686 C0.139238417,19.9763797 0,19.4914503 0,18.1541722 L0,3.8458278 C0,2.50854969 0.139238417,2.02362033 0.400699056,1.53473144 C0.662159695,1.04584256 1.04584256,0.662159695 1.53473144,0.400699056 C2.02362033,0.139238417 2.50854969,0 3.8458278,0 Z M3.8458278,2 C2.92853228,2 2.70418221,2.043324 2.47792916,2.16432545 C2.33757722,2.23938649 2.23938649,2.33757722 2.16432545,2.47792916 C2.043324,2.70418221 2,2.92853228 2,3.8458278 L2,18.1541722 C2,19.0714677 2.043324,19.2958178 2.16432545,19.5220708 C2.23938649,19.6624228 2.33757722,19.7606135 2.47792916,19.8356745 C2.70418221,19.956676 2.92853228,20 3.8458278,20 L16.1541722,20 C17.0714677,20 17.2958178,19.956676 17.5220708,19.8356745 C17.6624228,19.7606135 17.7606135,19.6624228 17.8356745,19.5220708 C17.956676,19.2958178 18,19.0714677 18,18.1541722 L18,3.8458278 C18,2.92853228 17.956676,2.70418221 17.8356745,2.47792916 C17.7606135,2.33757722 17.6624228,2.23938649 17.5220708,2.16432545 C17.2958178,2.043324 17.0714677,2 16.1541722,2 L3.8458278,2 Z M5,4 L11,4 C11.5522847,4 12,4.44771525 12,5 C12,5.55228475 11.5522847,6 11,6 L5,6 C4.44771525,6 4,5.55228475 4,5 C4,4.44771525 4.44771525,4 5,4 Z M5.2819426,8 L14.7180574,8 C15.1638168,8 15.3254599,8.04641281 15.4884229,8.13356635 C15.6513858,8.2207199 15.7792801,8.34861419 15.8664336,8.51157715 C15.9535872,8.67454011 16,8.83618323 16,9.2819426 L16,16.7180574 C16,17.1638168 15.9535872,17.3254599 15.8664336,17.4884229 C15.7792801,17.6513858 15.6513858,17.7792801 15.4884229,17.8664336 C15.3254599,17.9535872 15.1638168,18 14.7180574,18 L5.2819426,18 C4.83618323,18 4.67454011,17.9535872 4.51157715,17.8664336 C4.34861419,17.7792801 4.2207199,17.6513858 4.13356635,17.4884229 C4.04641281,17.3254599 4,17.1638168 4,16.7180574 L4,9.2819426 C4,8.83618323 4.04641281,8.67454011 4.13356635,8.51157715 C4.2207199,8.34861419 4.34861419,8.2207199 4.51157715,8.13356635 C4.67454011,8.04641281 4.83618323,8 5.2819426,8 Z" id="path-1"></path>
    </defs>
    <g id="Page-1" stroke="none" stroke-width="1" fill="none" fill-rule="evenodd">
        <g id="Artboard" transform="translate(-224.000000, -876.000000)">
            <g id="Icon" transform="translate(224.000000, 876.000000)">
                <mask id="mask-2" fill="white">
                    <use xlink:href="#path-1"></use>
                </mask>
                <use fill="#000000" fill-rule="nonzero" xlink:href="#path-1"></use>
                <g id="Color" mask="url(#mask-2)" fill="#999999">
                    <g transform="translate(-4.000000, -3.000000)">
                        <rect x="0" y="0" width="28" height="28"></rect>
                    </g>
                </g>
            </g>
        </g>
    </g>
</svg>