[
  {
    "login": "ChangJoo-Park",
    "id": 1451365,
    "avatar_url": "https://avatars0.githubusercontent.com/u/1451365?v=4",
    "gravatar_id": "",
    "url": "https://api.github.com/users/ChangJoo-Park",
    "html_url": "https://github.com/ChangJoo-Park",
    "followers_url": "https://api.github.com/users/ChangJoo-Park/followers",
    "following_url": "https://api.github.com/users/ChangJoo-Park/following{/other_user}",
    "gists_url": "https://api.github.com/users/ChangJoo-Park/gists{/gist_id}",
    "starred_url": "https://api.github.com/users/ChangJoo-Park/starred{/owner}{/repo}",
    "subscriptions_url": "https://api.github.com/users/ChangJoo-Park/subscriptions",
    "organizations_url": "https://api.github.com/users/ChangJoo-Park/orgs",
    "repos_url": "https://api.github.com/users/ChangJoo-Park/repos",
    "events_url": "https://api.github.com/users/ChangJoo-Park/events{/privacy}",
    "received_events_url": "https://api.github.com/users/ChangJoo-Park/received_events",
    "type": "User",
    "site_admin": false
  },
  {
    "login": "rlam3",
    "id": 1154044,
    "avatar_url": "https://avatars2.githubusercontent.com/u/1154044?v=4",
    "gravatar_id": "",
    "url": "https://api.github.com/users/rlam3",
    "html_url": "https://github.com/rlam3",
    "followers_url": "https://api.github.com/users/rlam3/followers",
    "following_url": "https://api.github.com/users/rlam3/following{/other_user}",
    "gists_url": "https://api.github.com/users/rlam3/gists{/gist_id}",
    "starred_url": "https://api.github.com/users/rlam3/starred{/owner}{/repo}",
    "subscriptions_url": "https://api.github.com/users/rlam3/subscriptions",
    "organizations_url": "https://api.github.com/users/rlam3/orgs",
    "repos_url": "https://api.github.com/users/rlam3/repos",
    "events_url": "https://api.github.com/users/rlam3/events{/privacy}",
    "received_events_url": "https://api.github.com/users/rlam3/received_events",
    "type": "User",
    "site_admin": false
  }
]
