<?xml version="1.0" encoding="UTF-8"?>
<svg width="20px" height="21px" viewBox="0 0 20 21" version="1.1" xmlns="http://www.w3.org/2000/svg" xmlns:xlink="http://www.w3.org/1999/xlink">
    <!-- Generator: Sketch 49 (51002) - http://www.bohemiancoding.com/sketch -->
    <title>Icon</title>
    <desc>Created with Sketch.</desc>
    <defs>
        <path d="M10,11 C7.23857625,11 5,8.53756612 5,5.5 C5,2.46243388 7.23857625,0 10,0 C12.7614237,0 15,2.46243388 15,5.5 C15,8.53756612 12.7614237,11 10,11 Z M20,17.7928932 C20,20.9922198 0,20.9922198 0,17.7928932 C0,14.5935666 5.6862915,12 10,12 C14.3137085,12 20,14.5935666 20,17.7928932 Z" id="path-1"></path>
    </defs>
    <g id="Page-1" stroke="none" stroke-width="1" fill="none" fill-rule="evenodd">
        <g id="Artboard" transform="translate(-130.000000, -877.000000)">
            <g id="Icon" transform="translate(130.000000, 877.000000)">
                <mask id="mask-2" fill="white">
                    <use xlink:href="#path-1"></use>
                </mask>
                <use fill="#000000" xlink:href="#path-1"></use>
                <g id="Color" mask="url(#mask-2)" fill="#999999">
                    <g transform="translate(-4.000000, -4.000000)">
                        <rect x="0" y="0" width="28" height="28"></rect>
                    </g>
                </g>
            </g>
        </g>
    </g>
</svg>